<?xml version="1.0" standalone="no"?>
<!DOCTYPE svg PUBLIC "-//W3C//DTD SVG 20010904//EN"
 "http://www.w3.org/TR/2001/REC-SVG-20010904/DTD/svg10.dtd">
<svg version="1.0" xmlns="http://www.w3.org/2000/svg"
 width="260.000000pt" height="260.000000pt" viewBox="0 0 260.000000 260.000000"
 preserveAspectRatio="xMidYMid meet">
<metadata>
Created by potrace 1.16, written by Peter Selinger 2001-2019
</metadata>
<g transform="translate(0.000000,260.000000) scale(0.100000,-0.100000)"
fill="#000000" stroke="none">
<path d="M1250 2510 l0 -81 -63 -77 c-206 -250 -468 -652 -780 -1199 -138
-241 -367 -663 -367 -675 0 -5 8 -8 18 -8 9 0 145 -11 302 -25 322 -28 881
-75 886 -75 2 0 4 -21 4 -46 l0 -47 -427 6 c-236 3 -475 11 -532 17 -57 6
-106 8 -109 6 -7 -8 48 -78 133 -172 l77 -84 681 0 682 0 90 126 c49 69 96
131 104 137 8 7 149 35 313 63 272 47 333 62 316 80 -3 3 -43 0 -89 -7 -51 -8
-84 -9 -86 -4 -2 6 -155 249 -341 540 -543 853 -677 1055 -649 983 15 -40 207
-671 205 -674 -2 -1 -56 91 -121 204 -64 114 -121 212 -125 219 -4 7 -6 -116
-4 -272 5 -342 -18 -727 -57 -960 -5 -29 -9 404 -10 1028 l-1 1077 -25 0 c-25
0 -25 -1 -25 -80z m1003 -2010 c76 -35 136 -64 134 -66 -5 -5 -414 -80 -507
-93 -118 -17 -345 -39 -467 -47 l-113 -7 0 59 0 59 243 0 c135 1 282 6 332 13
92 13 205 40 205 50 0 3 -16 34 -35 69 -19 35 -35 66 -35 68 0 5 34 -10 243
-105z"/>
</g>
</svg>
